<?xml version="1.0" encoding="UTF-8"?>
<svg width="512px" height="512px" enable-background="new 0 0 414.693 414.693" version="1.1" viewBox="0 0 414.693 414.693" xml:space="preserve" xmlns="http://www.w3.org/2000/svg">
<path d="m355.58 148.23c0-81.735-66.496-148.23-148.23-148.23s-148.23 66.496-148.23 148.23c0 76.672 58.514 139.93 133.23 147.48v47.601h-41.568v30h41.568v41.385h30v-41.385h41.568v-30h-41.568v-47.601c74.718-7.543 133.23-70.804 133.23-147.48zm-266.46 0c0-65.193 53.038-118.23 118.23-118.23s118.23 53.038 118.23 118.23-53.038 118.23-118.23 118.23-118.23-53.038-118.23-118.23z" fill="#e95765"/>
</svg>
