<svg version="1.1" xmlns="http://www.w3.org/2000/svg"
xmlns:xlink="http://www.w3.org/1999/xlink">	
	<symbol id="house" enable-background="new 0 0 511.984 511.984" version="1.1" viewBox="0 0 511.984 511.984" xml:space="preserve" xmlns="http://www.w3.org/2000/svg">
		<path d="m464.25 182.26l-202.66-124.78c-3.43-2.109-7.75-2.117-11.179 0l-202.66 124.78c-3.148 1.945-5.07 5.383-5.07 9.086v256.65c0 5.891 4.773 10.672 10.664 10.672h405.32c5.89 0 10.655-4.781 10.655-10.672v-256.65c-1e-3 -3.703-1.922-7.141-5.063-9.086z" fill="#E6E9ED"/>
		<path d="m506.24 161.2l-245.32-128c-3.094-1.609-6.773-1.609-9.867 0l-245.33 128c-3.523 1.844-5.734 5.484-5.734 9.46v42.663c0 3.734 1.953 7.187 5.141 9.125 3.187 1.93 7.155 2.055 10.46 0.336l240.39-125.42 240.4 125.42c1.546 0.805 3.233 1.203 4.921 1.203 1.922 0 3.844-0.516 5.531-1.539 3.188-1.938 5.141-5.39 5.141-9.125v-42.663c0-3.976-2.203-7.616-5.734-9.46z" fill="#ED5564"/>
		<path d="m255.99 234.66c-52.927 0-95.996 43.07-95.996 96.004v117.32c0 5.891 4.781 10.672 10.671 10.672h170.65c5.891 0 10.672-4.781 10.672-10.672v-117.32c0-52.935-43.059-96.004-95.996-96.004z" fill="#434A54"/>
		<g fill="#F6BB42">
			<path d="m287.99 191.99h-63.998c-5.89 0-10.663-4.773-10.663-10.664s4.773-10.664 10.663-10.664h63.998c5.891 0 10.672 4.773 10.672 10.664s-4.781 10.664-10.672 10.664z"/>
			<path d="m213.33 202.66c-2.727 0-5.46-1.039-7.539-3.125-4.172-4.164-4.172-10.921 0-15.085l3.125-3.125-3.125-3.125c-4.172-4.164-4.172-10.913 0-15.085 4.164-4.164 10.914-4.164 15.085 0l10.663 10.671c4.164 4.164 4.164 10.914 0 15.085l-10.663 10.664c-2.085 2.086-4.812 3.125-7.546 3.125z"/>
			<path d="m298.66 202.66c-2.734 0-5.469-1.039-7.547-3.125l-10.672-10.664c-4.156-4.172-4.156-10.922 0-15.085l10.672-10.671c4.172-4.164 10.922-4.164 15.078 0 4.171 4.172 4.171 10.921 0 15.085l-3.125 3.125 3.125 3.125c4.171 4.164 4.171 10.922 0 15.085-2.078 2.086-4.812 3.125-7.531 3.125z"/>
		</g>
		<path d="m117.33 415.99c5.89 0 10.664-4.781 10.664-10.672 0-5.89-4.773-10.655-10.664-10.655h-74.661v21.327h74.661z" fill="#CCD1D9"/>
		<path d="m479.98 458.66h-447.98c-5.891 0-10.664-4.781-10.664-10.672s4.773-10.672 10.664-10.672h447.98c5.89 0 10.671 4.781 10.671 10.672s-4.781 10.672-10.671 10.672z" fill="#656D78"/>
		<path d="m509.71 420.1c-2.016-2.594-5.109-4.109-8.406-4.109h-128c-3.281 0-6.374 1.516-8.405 4.109-2.016 2.578-2.734 5.953-1.938 9.141l10.671 42.669c1.188 4.75 5.453 8.078 10.343 8.078h106.67c4.891 0 9.155-3.328 10.343-8.078l10.672-42.669c0.797-3.187 0.078-6.562-1.953-9.141z" fill="#ED5564"/>
	</symbol>
	<symbol id="female" enable-background="new 0 0 414.693 414.693" version="1.1" viewBox="0 0 414.693 414.693" xml:space="preserve" xmlns="http://www.w3.org/2000/svg">
	<path d="m355.58 148.23c0-81.735-66.496-148.23-148.23-148.23s-148.23 66.496-148.23 148.23c0 76.672 58.514 139.93 133.23 147.48v47.601h-41.568v30h41.568v41.385h30v-41.385h41.568v-30h-41.568v-47.601c74.718-7.543 133.23-70.804 133.23-147.48zm-266.46 0c0-65.193 53.038-118.23 118.23-118.23s118.23 53.038 118.23 118.23-53.038 118.23-118.23 118.23-118.23-53.038-118.23-118.23z" fill="#e95765"/>
	</symbol>
	
	<symbol id="male" enable-background="new 0 0 351.778 351.778" version="1.1" viewBox="0 0 351.778 351.778" xml:space="preserve" xmlns="http://www.w3.org/2000/svg">
	<path d="m321.78 95.024l30-0.049-0.154-94.821-94.822-0.154-0.049 30 43.741 0.071-58.583 58.583c-26.385-21.595-59.13-33.339-93.68-33.339-39.594 0-76.817 15.419-104.81 43.417-27.998 27.997-43.417 65.221-43.417 104.82s15.419 76.818 43.416 104.82 65.221 43.416 104.81 43.416 76.818-15.419 104.82-43.416c54.215-54.215 57.572-140.32 10.073-198.49l58.588-58.588 0.072 43.74zm-89.945 192.12c-22.331 22.331-52.021 34.629-83.603 34.629s-61.27-12.298-83.601-34.629-34.629-52.021-34.629-83.602 12.298-61.271 34.629-83.602 52.021-34.629 83.602-34.629 61.271 12.298 83.603 34.629c46.097 46.099 46.097 121.11-1e-3 167.2z" fill="#434a54"/>
	</symbol>
	
	<symbol id="Dog" enable-background="new 0 0 279.757 279.757" version="1.1" viewBox="0 0 279.757 279.757" xml:space="preserve" xmlns="http://www.w3.org/2000/svg">
		<path d="m272.76 65.006h-15.652c-3.85 0-8.473-2.783-10.265-6.187l-0.424-0.801c-1.796-3.4-6.414-6.183-10.264-6.183h-16.393c-3.846 0-9.389 2.045-12.313 4.546l-34.759 29.707c-2.924 2.505-8.473 4.553-12.313 4.553h-55.582c-20.925-0.534-37.121 7.581-37.121 7.581-3.559 1.462-9.552 2.005-13.315 1.201 0 0-23.603-3.576-54.354-31.905 0 0 11.928 31.709 35.947 51.857 4.808 4.029 5.405 5.308 3.973 8.874l-18.588 46.318c-1.428 3.571-1.932 9.572-1.107 13.336l7.262 33.184c0.816 3.764 4.645 6.835 8.489 6.835h14.931c3.844 0 6.998-3.047 6.998-6.766 0-3.734-3.051-7.434-6.775-8.243-3.725-0.809-7.104-4.593-7.506-8.426l-0.732-6.941c-0.407-3.835 1.578-9.109 4.387-11.734l23.173-21.583c2.814-2.625 4.461-1.693 3.648 2.071l-3.747 17.441c-0.809 3.758 0.052 9.593 1.908 12.966l13.019 23.621c1.855 3.372 6.521 6.049 10.362 5.954l15.303-0.385c3.844-0.094 6.094-2.724 4.983-5.842-1.103-3.121-4.569-5.838-7.686-6.047-3.122-0.198-6.817-3.293-8.212-6.882l-5.179-13.319c-1.395-3.592-1.173-9.356 0.487-12.834l7.13-14.84c1.658-3.46 6.174-6.326 10.02-6.361l36.165-0.265c3.844-0.024 5.949 2.921 4.663 6.549l-19.5 55.265c-1.282 3.635 0.818 6.484 4.667 6.338l24.817-0.938c3.846-0.149 5.924-2.654 4.615-5.573s-4.85-6.376-7.873-7.69c-3.025-1.309-3.568-4.865-1.21-7.912l9.003-11.628c2.36-3.045 6-2.895 8.095 0.338l18.015 27.799c2.091 3.224 6.955 5.865 10.802 5.865h16.391c3.847 0 5.559-2.802 3.81-6.232l-1.683-3.28c-1.753-3.429-5.987-6.231-9.408-6.231-3.422 0-6.885-3.072-7.699-6.839l-8.403-39.038c-0.809-3.764 0.401-9.374 2.687-12.468l38.542-52.173c2.284-3.095 7.292-5.978 11.116-6.418l7.873-0.891c3.824-0.432 9.037-3.152 11.577-6.042l5.583-6.331c2.544-2.886 4.622-7.89 4.622-11.114 2e-3 -3.217-3.149-5.857-7-5.857z" fill="#e95765"/>
    </symbol>
	
	<symbol id="Cat" enable-background="new 0 0 244.555 244.555" version="1.1" viewBox="0 0 244.555 244.555" xml:space="preserve" xmlns="http://www.w3.org/2000/svg">
		<path d="m207.19 2.821c-2.4-2-6.6-3.9-10.7-2.1-7.8 5.3 27.4 27 9.6 99.6-3.7 15-12.8 7.2-23.6 3.9-24.6-7.7-50.9-9.4-76.4-12.1-9-1-18.2-1.7-26.9-4.1-9.2-2.5-9.6-3-7.3-11.4 6.4-8.1 3.8-19.2 3.5-23.8 4.8-10.6 6.6-19.8 2.8-24.5-10.3-12.2-12 19.4-25.4 19.5-6.1-0.6-10.1-0.1-11.6-3.4-2.7-5.7-6.9-13.1-12.3-16.6-8.3-5.5-10 9.7-6.5 24.1-1.1 8.8-0.3 14.8 4.2 21.2 2.3 3.2 2.8 7.2 3.5 11 1.3 6.6 2.1 14.8 2.1 21.5 0 3.8 0.7 15.6 1.3 19.4 2.8 17.2 3.7 20.6 16.6 33.2 5.4 5.3 13.6 9.9 17 17 2.5 5.4 4.7 11.3 7 16.7 4.5 10.4 7.3 21 9.2 32.1 1.1 6-13.2 7.3-10.8 15.6 1.9 6.8 20.1 6.7 21.2-1.1 0.7-4.4 2.8-12.4 3.8-18.5 5.3-22.9-2.5-31.8 3.6-52.6 1.6-7.5 30.9 7 34.9 9.7 8.1 5.5 16.8 9.9 25 15.2 12.7 8.2 3.9 15.4-4.3 22.1-4.4 3.6-4.4 3.8-10 2.5-4.6-0.9-8.2 1.9-9.2 5.2-1.5 4.7 5.3 7.9 10 7.3 14.1-1.5 33.6-16.2 39.7-28.9 4.1 4.8 2.4 9.3 0.1 15.4-1 2.6-2.1 5.1-3 7.7-2 5.9-3.9 4.3-8.7 5.4-7.1 2.3-3.9 12.7 3.9 11.5 2.7-0.4 12.9-1.6 14-6.3 0.5-2.1 2.6-6.4 3.6-8.5 2.2-5.2 14.4-32.4 9-37.6-2.8-2.6-5-5.3-7.1-8.5-3.3-5.2-1.8-5.8 1.1-10.2 3-4.6 5.7-10 8.3-14.8 5.9-11.4 1.5-21.2 6.7-36.4 16.1-48.7 8.1-102-7.9-115.4z" fill="#f9bb44"/>
    </symbol>
	
	<symbol id="heart" enable-background="new 0 0 496.158 496.158" version="1.1" viewBox="0 0 496.158 496.158" xml:space="preserve" xmlns="http://www.w3.org/2000/svg"><path class="active-path" d="m0 248.08c0-137.02 111.07-248.08 248.08-248.08 137.01 0 248.08 111.06 248.08 248.08 0 137-111.07 248.07-248.08 248.07-137.01 0-248.08-111.07-248.08-248.07z" fill="#E95765" data-old_color="#E04F5F" data-original="#E04F5F"/>
		<path class="" d="m374.12 155.14c-34.799-34.8-91.223-34.8-126.02 0h-0.029c-34.801-34.8-91.224-34.8-126.02 0-34.801 34.8-29.783 86.842 0 126.02 31.541 41.491 89.129 109.94 126.02 109.94h0.029c36.895 0 94.481-68.453 126.02-109.94 29.784-39.179 34.8-91.221 0-126.02z" fill="#fff" data-original="#FFFFFF"/> 
	</symbol>
</svg>